[gd_scene load_steps=6 format=2]

[ext_resource path="res://Maps/Components/ActorCamera.tscn" type="PackedScene" id=1]
[ext_resource path="res://Maps/Map.tscn" type="PackedScene" id=2]
[ext_resource path="res://Actors/AIActorBase.tscn" type="PackedScene" id=3]
[ext_resource path="res://UI/MainMenu.tscn" type="PackedScene" id=4]

[sub_resource type="GDScript" id=1]
script/source = "extends Node

func _ready():
	Saver.new('MainMenu')

func _input(event):
	if event.is_action(\"climb_up\"):
		print_stray_nodes()
"

[node name="Main" type="Node"]
script = SubResource( 1 )

[node name="MenuWorld" type="Spatial" parent="."]

[node name="MenuMap" parent="MenuWorld" instance=ExtResource( 2 )]
data = {
"cells": PoolIntArray( 5, 0, -1610612736, 65532, 0, 0, -65536, 0, 0, -65535, 0, -1610612736, -65534, 0, -1610612736, -65533, 0, 536870912, -65532, 0, 0, -65531, 0, 0, -4, 0, -1610612736, -3, 0, 0, -2, 0, 0, -1, 0, 0, 5, 1, -1610612736, 65532, 1, -1610612736, -65536, 1, 0, -65535, 1, 0, -65534, 1, 0, -65533, 1, 0, -65532, 1, -1610612736, -65531, 1, -1610612736, -4, 1, -1610612736, -3, 1, 0, -2, 1, 0, -1, 1, 0, 5, 2, 536870912, 65532, 2, -1610612736, -65536, 2, -1610612736, -65535, 2, -1610612736, -65534, 2, 0, -65533, 2, 536870912, -65532, 2, -1610612736, -65531, 2, 0, -4, 2, 0, -3, 2, -1610612736, -2, 2, -1610612736, -1, 2, 0, 0, 3, 536870912, 1, 3, -1610612736, 2, 3, 0, 3, 3, -1610612736, 4, 3, 0, 5, 3, 0, 65532, 3, 0, 65533, 3, -1610612736, 65534, 3, 536870912, 65535, 3, 0, -65536, 3, 536870912, -65535, 3, -1610612736, -65534, 3, -1610612736, -65533, 3, 0, -65532, 3, -1610612736, -65531, 3, 0, -4, 3, 0, -3, 3, 0, -2, 3, 0, -1, 3, 0, 0, 65534, -1610612736, 1, 65534, 536870912, 2, 65534, 0, 3, 65534, -1610612736, 4, 65534, -1610612736, 5, 65534, 0, 65532, 65534, -1610612736, 65533, 65534, 0, 65534, 65534, -1610612736, 65535, 65534, 0, -65536, 65534, 536870912, -65535, 65534, 0, -65534, 65534, 0, -65533, 65534, -1610612736, -65532, 65534, 0, -65531, 65534, 0, -4, 65534, 0, -3, 65534, -1610612736, -2, 65534, 0, -1, 65534, 0, 5, 65535, 536870912, 65532, 65535, 536870912, -65536, 65535, -1610612736, -65535, 65535, 536870912, -65534, 65535, -1610612736, -65533, 65535, 0, -65532, 65535, 536870912, -65531, 65535, 536870912, -4, 65535, 0, -3, 65535, 536870912, -2, 65535, 536870912, -1, 65535, 536870912 )
}

[node name="AI" parent="MenuWorld/MenuMap" groups=[
"faction_monsters",
] instance=ExtResource( 3 )]
transform = Transform( 1, 0, 0, 0, 1, 0, 0, 0, 1, -2, 0, 0 )

[node name="AI2" parent="MenuWorld/MenuMap" groups=[
"faction_players",
] instance=ExtResource( 3 )]
transform = Transform( 1, 0, 0, 0, 1, 0, 0, 0, 1, 3, 0, 0 )

[node name="ActorCamera" parent="MenuWorld/MenuMap/AI2" instance=ExtResource( 1 )]
transform = Transform( 1, 0, 0, 0, 0.790134, 0.612935, 0, -0.612935, 0.790134, 0, 6.49558, 8.59351 )

[node name="DirectionalLight" type="DirectionalLight" parent="MenuWorld"]
transform = Transform( 1, 0, 0, 0, 0.961387, 0.275201, 0, -0.275201, 0.961387, 0, 0, 0 )

[node name="CanvasLayer" type="CanvasLayer" parent="."]

[node name="MainMenu" parent="CanvasLayer" instance=ExtResource( 4 )]
