[gd_resource type="Shader" format=2]

[resource]
code = "shader_type spatial;
render_mode cull_disabled, unshaded;

uniform sampler2D color:hint_white;
uniform vec4 modulate:hint_color = vec4(1.0);
uniform vec2 uv_offset = vec2(0.0);
uniform vec2 uv_scale = vec2(1.0);
uniform bool uv_flip_h = false;
uniform bool uv_flip_v = false;
uniform bool billboard = false;
uniform bool only_y = false;


vec3 srgb(vec3 rgb){
	return mix(pow((rgb + vec3(0.055)) * (1.0 / (1.0 + 0.055)),vec3(2.4)),rgb.rgb * (1.0 / 12.92),lessThan(rgb.rgb,vec3(0.04045)));
}

bool alpha_dither(float x, float y, float alpha){
	int _x = int(x) % 4;
	int _y = int(y) % 4;
	int index = _x + _y * 4;
	float limit = 0.0;

	if (_x < 8) {
		if (index == 0) limit = 0.0625;
		if (index == 1) limit = 0.5625;
		if (index == 2) limit = 0.1875;
		if (index == 3) limit = 0.6875;
		if (index == 4) limit = 0.8125;
		if (index == 5) limit = 0.3125;
		if (index == 6) limit = 0.9375;
		if (index == 7) limit = 0.4375;
		if (index == 8) limit = 0.25;
		if (index == 9) limit = 0.75;
		if (index == 10) limit = 0.125;
		if (index == 11) limit = 0.625;
		if (index == 12) limit = 1.0;
		if (index == 13) limit = 0.5;
		if (index == 14) limit = 0.875;
		if (index == 15) limit = 0.375;
	}
	return alpha < limit;
}

void vertex(){
	UV = UV*uv_scale + uv_offset;
	if (uv_flip_h) {
		UV = UV*vec2(-1.0,1.0) + vec2(1.0,0.0);
	}
	if (uv_flip_v) {
		UV = UV*vec2(1.0,-1.0) + vec2(0.0,1.0);
	}
	
	if (billboard && !only_y){
		MODELVIEW_MATRIX = INV_CAMERA_MATRIX * mat4(CAMERA_MATRIX[0],CAMERA_MATRIX[1],CAMERA_MATRIX[2],WORLD_MATRIX[3]);
		MODELVIEW_MATRIX = MODELVIEW_MATRIX * mat4(vec4(length(WORLD_MATRIX[0].xyz), 0.0, 0.0, 0.0),vec4(0.0, length(WORLD_MATRIX[1].xyz), 0.0, 0.0),vec4(0.0, 0.0, length(WORLD_MATRIX[2].xyz), 0.0),vec4(0.0, 0.0, 0.0, 1.0));
	}
	if (billboard && only_y){
		MODELVIEW_MATRIX = INV_CAMERA_MATRIX * mat4(CAMERA_MATRIX[0],WORLD_MATRIX[1],vec4(normalize(cross(CAMERA_MATRIX[0].xyz,WORLD_MATRIX[1].xyz)), 0.0),WORLD_MATRIX[3]);
		MODELVIEW_MATRIX = MODELVIEW_MATRIX * mat4(vec4(length(WORLD_MATRIX[0].xyz), 0.0, 0.0, 0.0),vec4(0.0, 1.0, 0.0, 0.0),vec4(0.0, 0.0, length(WORLD_MATRIX[2].xyz), 0.0), vec4(0.0, 0.0, 0.0, 1.0));
	}
}

void fragment(){
	vec4 col = texture(color, UV);
	ALBEDO = srgb(col.rgb) * modulate.xyz;
	if (alpha_dither(FRAGCOORD.x, FRAGCOORD.y, col.a * modulate.a)){
		discard;
	}
}"
