[gd_scene load_steps=5 format=2]

[ext_resource path="res://Assets/test_wall.png" type="Texture" id=1]
[ext_resource path="res://Assets/cube_mesh.tres" type="ArrayMesh" id=2]

[sub_resource type="SpatialMaterial" id=1]
albedo_texture = ExtResource( 1 )

[sub_resource type="BoxShape" id=2]
extents = Vector3( 0.5, 0.5, 0.5 )

[node name="MeshLibrary" type="Spatial"]

[node name="wall" type="MeshInstance" parent="."]
mesh = ExtResource( 2 )
material/0 = SubResource( 1 )

[node name="CollisionShape" type="CollisionShape" parent="wall"]
shape = SubResource( 2 )
